(['/home/al/Programs/finometer-data-logger/finometer.py'],
 ['/home/al/Programs/finometer-data-logger'],
 ['codecs'],
 ['/home/al/.cache/pypoetry/virtualenvs/finometerdl-bnMV-q7v-py3.10/lib/python3.10/site-packages/_pyinstaller_hooks_contrib/hooks/stdhooks',
  '/home/al/.cache/pypoetry/virtualenvs/finometerdl-bnMV-q7v-py3.10/lib/python3.10/site-packages/_pyinstaller_hooks_contrib/hooks/stdhooks/__pycache__',
  '/home/al/.cache/pypoetry/virtualenvs/finometerdl-bnMV-q7v-py3.10/lib/python3.10/site-packages/_pyinstaller_hooks_contrib/hooks/rthooks',
  '/home/al/.cache/pypoetry/virtualenvs/finometerdl-bnMV-q7v-py3.10/lib/python3.10/site-packages/_pyinstaller_hooks_contrib/hooks/rthooks/__pycache__',
  '/home/al/.cache/pypoetry/virtualenvs/finometerdl-bnMV-q7v-py3.10/lib/python3.10/site-packages/_pyinstaller_hooks_contrib/hooks'],
 {},
 [],
 [],
 False,
 False,
 False,
 {},
 '3.10.10 (main, Feb  7 2023, 12:19:31) [GCC 12.2.0]',
 [('pyi_rth_inspect',
   '/home/al/.cache/pypoetry/virtualenvs/finometerdl-bnMV-q7v-py3.10/lib/python3.10/site-packages/PyInstaller/hooks/rthooks/pyi_rth_inspect.py',
   'PYSOURCE'),
  ('finometer',
   '/home/al/Programs/finometer-data-logger/finometer.py',
   'PYSOURCE')],
 [('inspect',
   '/nix/store/0n4y44dnaxafqs7cg625aldrb152x7bx-python3-3.10.10/lib/python3.10/inspect.py',
   'PYMODULE'),
  ('importlib',
   '/nix/store/0n4y44dnaxafqs7cg625aldrb152x7bx-python3-3.10.10/lib/python3.10/importlib/__init__.py',
   'PYMODULE'),
  ('importlib.abc',
   '/nix/store/0n4y44dnaxafqs7cg625aldrb152x7bx-python3-3.10.10/lib/python3.10/importlib/abc.py',
   'PYMODULE'),
  ('typing',
   '/nix/store/0n4y44dnaxafqs7cg625aldrb152x7bx-python3-3.10.10/lib/python3.10/typing.py',
   'PYMODULE'),
  ('contextlib',
   '/nix/store/0n4y44dnaxafqs7cg625aldrb152x7bx-python3-3.10.10/lib/python3.10/contextlib.py',
   'PYMODULE'),
  ('importlib._abc',
   '/nix/store/0n4y44dnaxafqs7cg625aldrb152x7bx-python3-3.10.10/lib/python3.10/importlib/_abc.py',
   'PYMODULE'),
  ('importlib._bootstrap_external',
   '/nix/store/0n4y44dnaxafqs7cg625aldrb152x7bx-python3-3.10.10/lib/python3.10/importlib/_bootstrap_external.py',
   'PYMODULE'),
  ('importlib.metadata',
   '/nix/store/0n4y44dnaxafqs7cg625aldrb152x7bx-python3-3.10.10/lib/python3.10/importlib/metadata/__init__.py',
   'PYMODULE'),
  ('importlib.metadata._itertools',
   '/nix/store/0n4y44dnaxafqs7cg625aldrb152x7bx-python3-3.10.10/lib/python3.10/importlib/metadata/_itertools.py',
   'PYMODULE'),
  ('importlib.metadata._functools',
   '/nix/store/0n4y44dnaxafqs7cg625aldrb152x7bx-python3-3.10.10/lib/python3.10/importlib/metadata/_functools.py',
   'PYMODULE'),
  ('importlib.metadata._collections',
   '/nix/store/0n4y44dnaxafqs7cg625aldrb152x7bx-python3-3.10.10/lib/python3.10/importlib/metadata/_collections.py',
   'PYMODULE'),
  ('importlib.metadata._meta',
   '/nix/store/0n4y44dnaxafqs7cg625aldrb152x7bx-python3-3.10.10/lib/python3.10/importlib/metadata/_meta.py',
   'PYMODULE'),
  ('importlib.metadata._adapters',
   '/nix/store/0n4y44dnaxafqs7cg625aldrb152x7bx-python3-3.10.10/lib/python3.10/importlib/metadata/_adapters.py',
   'PYMODULE'),
  ('importlib.metadata._text',
   '/nix/store/0n4y44dnaxafqs7cg625aldrb152x7bx-python3-3.10.10/lib/python3.10/importlib/metadata/_text.py',
   'PYMODULE'),
  ('email.message',
   '/nix/store/0n4y44dnaxafqs7cg625aldrb152x7bx-python3-3.10.10/lib/python3.10/email/message.py',
   'PYMODULE'),
  ('email.policy',
   '/nix/store/0n4y44dnaxafqs7cg625aldrb152x7bx-python3-3.10.10/lib/python3.10/email/policy.py',
   'PYMODULE'),
  ('email.contentmanager',
   '/nix/store/0n4y44dnaxafqs7cg625aldrb152x7bx-python3-3.10.10/lib/python3.10/email/contentmanager.py',
   'PYMODULE'),
  ('email.quoprimime',
   '/nix/store/0n4y44dnaxafqs7cg625aldrb152x7bx-python3-3.10.10/lib/python3.10/email/quoprimime.py',
   'PYMODULE'),
  ('string',
   '/nix/store/0n4y44dnaxafqs7cg625aldrb152x7bx-python3-3.10.10/lib/python3.10/string.py',
   'PYMODULE'),
  ('email.headerregistry',
   '/nix/store/0n4y44dnaxafqs7cg625aldrb152x7bx-python3-3.10.10/lib/python3.10/email/headerregistry.py',
   'PYMODULE'),
  ('email._header_value_parser',
   '/nix/store/0n4y44dnaxafqs7cg625aldrb152x7bx-python3-3.10.10/lib/python3.10/email/_header_value_parser.py',
   'PYMODULE'),
  ('email.iterators',
   '/nix/store/0n4y44dnaxafqs7cg625aldrb152x7bx-python3-3.10.10/lib/python3.10/email/iterators.py',
   'PYMODULE'),
  ('email.generator',
   '/nix/store/0n4y44dnaxafqs7cg625aldrb152x7bx-python3-3.10.10/lib/python3.10/email/generator.py',
   'PYMODULE'),
  ('copy',
   '/nix/store/0n4y44dnaxafqs7cg625aldrb152x7bx-python3-3.10.10/lib/python3.10/copy.py',
   'PYMODULE'),
  ('random',
   '/nix/store/0n4y44dnaxafqs7cg625aldrb152x7bx-python3-3.10.10/lib/python3.10/random.py',
   'PYMODULE'),
  ('statistics',
   '/nix/store/0n4y44dnaxafqs7cg625aldrb152x7bx-python3-3.10.10/lib/python3.10/statistics.py',
   'PYMODULE'),
  ('decimal',
   '/nix/store/0n4y44dnaxafqs7cg625aldrb152x7bx-python3-3.10.10/lib/python3.10/decimal.py',
   'PYMODULE'),
  ('_pydecimal',
   '/nix/store/0n4y44dnaxafqs7cg625aldrb152x7bx-python3-3.10.10/lib/python3.10/_pydecimal.py',
   'PYMODULE'),
  ('contextvars',
   '/nix/store/0n4y44dnaxafqs7cg625aldrb152x7bx-python3-3.10.10/lib/python3.10/contextvars.py',
   'PYMODULE'),
  ('fractions',
   '/nix/store/0n4y44dnaxafqs7cg625aldrb152x7bx-python3-3.10.10/lib/python3.10/fractions.py',
   'PYMODULE'),
  ('numbers',
   '/nix/store/0n4y44dnaxafqs7cg625aldrb152x7bx-python3-3.10.10/lib/python3.10/numbers.py',
   'PYMODULE'),
  ('hashlib',
   '/nix/store/0n4y44dnaxafqs7cg625aldrb152x7bx-python3-3.10.10/lib/python3.10/hashlib.py',
   'PYMODULE'),
  ('bisect',
   '/nix/store/0n4y44dnaxafqs7cg625aldrb152x7bx-python3-3.10.10/lib/python3.10/bisect.py',
   'PYMODULE'),
  ('_strptime',
   '/nix/store/0n4y44dnaxafqs7cg625aldrb152x7bx-python3-3.10.10/lib/python3.10/_strptime.py',
   'PYMODULE'),
  ('datetime',
   '/nix/store/0n4y44dnaxafqs7cg625aldrb152x7bx-python3-3.10.10/lib/python3.10/datetime.py',
   'PYMODULE'),
  ('calendar',
   '/nix/store/0n4y44dnaxafqs7cg625aldrb152x7bx-python3-3.10.10/lib/python3.10/calendar.py',
   'PYMODULE'),
  ('email._encoded_words',
   '/nix/store/0n4y44dnaxafqs7cg625aldrb152x7bx-python3-3.10.10/lib/python3.10/email/_encoded_words.py',
   'PYMODULE'),
  ('base64',
   '/nix/store/0n4y44dnaxafqs7cg625aldrb152x7bx-python3-3.10.10/lib/python3.10/base64.py',
   'PYMODULE'),
  ('getopt',
   '/nix/store/0n4y44dnaxafqs7cg625aldrb152x7bx-python3-3.10.10/lib/python3.10/getopt.py',
   'PYMODULE'),
  ('gettext',
   '/nix/store/0n4y44dnaxafqs7cg625aldrb152x7bx-python3-3.10.10/lib/python3.10/gettext.py',
   'PYMODULE'),
  ('struct',
   '/nix/store/0n4y44dnaxafqs7cg625aldrb152x7bx-python3-3.10.10/lib/python3.10/struct.py',
   'PYMODULE'),
  ('email.charset',
   '/nix/store/0n4y44dnaxafqs7cg625aldrb152x7bx-python3-3.10.10/lib/python3.10/email/charset.py',
   'PYMODULE'),
  ('email.encoders',
   '/nix/store/0n4y44dnaxafqs7cg625aldrb152x7bx-python3-3.10.10/lib/python3.10/email/encoders.py',
   'PYMODULE'),
  ('email.base64mime',
   '/nix/store/0n4y44dnaxafqs7cg625aldrb152x7bx-python3-3.10.10/lib/python3.10/email/base64mime.py',
   'PYMODULE'),
  ('email._policybase',
   '/nix/store/0n4y44dnaxafqs7cg625aldrb152x7bx-python3-3.10.10/lib/python3.10/email/_policybase.py',
   'PYMODULE'),
  ('email.header',
   '/nix/store/0n4y44dnaxafqs7cg625aldrb152x7bx-python3-3.10.10/lib/python3.10/email/header.py',
   'PYMODULE'),
  ('email.errors',
   '/nix/store/0n4y44dnaxafqs7cg625aldrb152x7bx-python3-3.10.10/lib/python3.10/email/errors.py',
   'PYMODULE'),
  ('email.utils',
   '/nix/store/0n4y44dnaxafqs7cg625aldrb152x7bx-python3-3.10.10/lib/python3.10/email/utils.py',
   'PYMODULE'),
  ('email._parseaddr',
   '/nix/store/0n4y44dnaxafqs7cg625aldrb152x7bx-python3-3.10.10/lib/python3.10/email/_parseaddr.py',
   'PYMODULE'),
  ('socket',
   '/nix/store/0n4y44dnaxafqs7cg625aldrb152x7bx-python3-3.10.10/lib/python3.10/socket.py',
   'PYMODULE'),
  ('selectors',
   '/nix/store/0n4y44dnaxafqs7cg625aldrb152x7bx-python3-3.10.10/lib/python3.10/selectors.py',
   'PYMODULE'),
  ('quopri',
   '/nix/store/0n4y44dnaxafqs7cg625aldrb152x7bx-python3-3.10.10/lib/python3.10/quopri.py',
   'PYMODULE'),
  ('uu',
   '/nix/store/0n4y44dnaxafqs7cg625aldrb152x7bx-python3-3.10.10/lib/python3.10/uu.py',
   'PYMODULE'),
  ('optparse',
   '/nix/store/0n4y44dnaxafqs7cg625aldrb152x7bx-python3-3.10.10/lib/python3.10/optparse.py',
   'PYMODULE'),
  ('textwrap',
   '/nix/store/0n4y44dnaxafqs7cg625aldrb152x7bx-python3-3.10.10/lib/python3.10/textwrap.py',
   'PYMODULE'),
  ('zipfile',
   '/nix/store/0n4y44dnaxafqs7cg625aldrb152x7bx-python3-3.10.10/lib/python3.10/zipfile.py',
   'PYMODULE'),
  ('py_compile',
   '/nix/store/0n4y44dnaxafqs7cg625aldrb152x7bx-python3-3.10.10/lib/python3.10/py_compile.py',
   'PYMODULE'),
  ('lzma',
   '/nix/store/0n4y44dnaxafqs7cg625aldrb152x7bx-python3-3.10.10/lib/python3.10/lzma.py',
   'PYMODULE'),
  ('_compression',
   '/nix/store/0n4y44dnaxafqs7cg625aldrb152x7bx-python3-3.10.10/lib/python3.10/_compression.py',
   'PYMODULE'),
  ('bz2',
   '/nix/store/0n4y44dnaxafqs7cg625aldrb152x7bx-python3-3.10.10/lib/python3.10/bz2.py',
   'PYMODULE'),
  ('threading',
   '/nix/store/0n4y44dnaxafqs7cg625aldrb152x7bx-python3-3.10.10/lib/python3.10/threading.py',
   'PYMODULE'),
  ('_threading_local',
   '/nix/store/0n4y44dnaxafqs7cg625aldrb152x7bx-python3-3.10.10/lib/python3.10/_threading_local.py',
   'PYMODULE'),
  ('shutil',
   '/nix/store/0n4y44dnaxafqs7cg625aldrb152x7bx-python3-3.10.10/lib/python3.10/shutil.py',
   'PYMODULE'),
  ('tarfile',
   '/nix/store/0n4y44dnaxafqs7cg625aldrb152x7bx-python3-3.10.10/lib/python3.10/tarfile.py',
   'PYMODULE'),
  ('gzip',
   '/nix/store/0n4y44dnaxafqs7cg625aldrb152x7bx-python3-3.10.10/lib/python3.10/gzip.py',
   'PYMODULE'),
  ('importlib.util',
   '/nix/store/0n4y44dnaxafqs7cg625aldrb152x7bx-python3-3.10.10/lib/python3.10/importlib/util.py',
   'PYMODULE'),
  ('email',
   '/nix/store/0n4y44dnaxafqs7cg625aldrb152x7bx-python3-3.10.10/lib/python3.10/email/__init__.py',
   'PYMODULE'),
  ('email.parser',
   '/nix/store/0n4y44dnaxafqs7cg625aldrb152x7bx-python3-3.10.10/lib/python3.10/email/parser.py',
   'PYMODULE'),
  ('email.feedparser',
   '/nix/store/0n4y44dnaxafqs7cg625aldrb152x7bx-python3-3.10.10/lib/python3.10/email/feedparser.py',
   'PYMODULE'),
  ('csv',
   '/nix/store/0n4y44dnaxafqs7cg625aldrb152x7bx-python3-3.10.10/lib/python3.10/csv.py',
   'PYMODULE'),
  ('importlib.readers',
   '/nix/store/0n4y44dnaxafqs7cg625aldrb152x7bx-python3-3.10.10/lib/python3.10/importlib/readers.py',
   'PYMODULE'),
  ('importlib._bootstrap',
   '/nix/store/0n4y44dnaxafqs7cg625aldrb152x7bx-python3-3.10.10/lib/python3.10/importlib/_bootstrap.py',
   'PYMODULE'),
  ('argparse',
   '/nix/store/0n4y44dnaxafqs7cg625aldrb152x7bx-python3-3.10.10/lib/python3.10/argparse.py',
   'PYMODULE'),
  ('importlib.machinery',
   '/nix/store/0n4y44dnaxafqs7cg625aldrb152x7bx-python3-3.10.10/lib/python3.10/importlib/machinery.py',
   'PYMODULE'),
  ('dis',
   '/nix/store/0n4y44dnaxafqs7cg625aldrb152x7bx-python3-3.10.10/lib/python3.10/dis.py',
   'PYMODULE'),
  ('opcode',
   '/nix/store/0n4y44dnaxafqs7cg625aldrb152x7bx-python3-3.10.10/lib/python3.10/opcode.py',
   'PYMODULE'),
  ('ast',
   '/nix/store/0n4y44dnaxafqs7cg625aldrb152x7bx-python3-3.10.10/lib/python3.10/ast.py',
   'PYMODULE'),
  ('tracemalloc',
   '/nix/store/0n4y44dnaxafqs7cg625aldrb152x7bx-python3-3.10.10/lib/python3.10/tracemalloc.py',
   'PYMODULE'),
  ('pickle',
   '/nix/store/0n4y44dnaxafqs7cg625aldrb152x7bx-python3-3.10.10/lib/python3.10/pickle.py',
   'PYMODULE'),
  ('pprint',
   '/nix/store/0n4y44dnaxafqs7cg625aldrb152x7bx-python3-3.10.10/lib/python3.10/pprint.py',
   'PYMODULE'),
  ('dataclasses',
   '/nix/store/0n4y44dnaxafqs7cg625aldrb152x7bx-python3-3.10.10/lib/python3.10/dataclasses.py',
   'PYMODULE'),
  ('_compat_pickle',
   '/nix/store/0n4y44dnaxafqs7cg625aldrb152x7bx-python3-3.10.10/lib/python3.10/_compat_pickle.py',
   'PYMODULE'),
  ('stringprep',
   '/nix/store/0n4y44dnaxafqs7cg625aldrb152x7bx-python3-3.10.10/lib/python3.10/stringprep.py',
   'PYMODULE'),
  ('tempfile',
   '/nix/store/0n4y44dnaxafqs7cg625aldrb152x7bx-python3-3.10.10/lib/python3.10/tempfile.py',
   'PYMODULE'),
  ('getpass',
   '/nix/store/0n4y44dnaxafqs7cg625aldrb152x7bx-python3-3.10.10/lib/python3.10/getpass.py',
   'PYMODULE'),
  ('nturl2path',
   '/nix/store/0n4y44dnaxafqs7cg625aldrb152x7bx-python3-3.10.10/lib/python3.10/nturl2path.py',
   'PYMODULE'),
  ('ftplib',
   '/nix/store/0n4y44dnaxafqs7cg625aldrb152x7bx-python3-3.10.10/lib/python3.10/ftplib.py',
   'PYMODULE'),
  ('netrc',
   '/nix/store/0n4y44dnaxafqs7cg625aldrb152x7bx-python3-3.10.10/lib/python3.10/netrc.py',
   'PYMODULE'),
  ('shlex',
   '/nix/store/0n4y44dnaxafqs7cg625aldrb152x7bx-python3-3.10.10/lib/python3.10/shlex.py',
   'PYMODULE'),
  ('mimetypes',
   '/nix/store/0n4y44dnaxafqs7cg625aldrb152x7bx-python3-3.10.10/lib/python3.10/mimetypes.py',
   'PYMODULE'),
  ('http.cookiejar',
   '/nix/store/0n4y44dnaxafqs7cg625aldrb152x7bx-python3-3.10.10/lib/python3.10/http/cookiejar.py',
   'PYMODULE'),
  ('http',
   '/nix/store/0n4y44dnaxafqs7cg625aldrb152x7bx-python3-3.10.10/lib/python3.10/http/__init__.py',
   'PYMODULE'),
  ('ssl',
   '/nix/store/0n4y44dnaxafqs7cg625aldrb152x7bx-python3-3.10.10/lib/python3.10/ssl.py',
   'PYMODULE'),
  ('http.client',
   '/nix/store/0n4y44dnaxafqs7cg625aldrb152x7bx-python3-3.10.10/lib/python3.10/http/client.py',
   'PYMODULE'),
  ('_py_abc',
   '/nix/store/0n4y44dnaxafqs7cg625aldrb152x7bx-python3-3.10.10/lib/python3.10/_py_abc.py',
   'PYMODULE'),
  ('subprocess',
   '/nix/store/0n4y44dnaxafqs7cg625aldrb152x7bx-python3-3.10.10/lib/python3.10/subprocess.py',
   'PYMODULE'),
  ('signal',
   '/nix/store/0n4y44dnaxafqs7cg625aldrb152x7bx-python3-3.10.10/lib/python3.10/signal.py',
   'PYMODULE'),
  ('serialdatalog',
   '/home/al/.cache/pypoetry/virtualenvs/finometerdl-bnMV-q7v-py3.10/lib/python3.10/site-packages/serialdatalog/__init__.py',
   'PYMODULE'),
  ('serialdatalog.datalog',
   '/home/al/.cache/pypoetry/virtualenvs/finometerdl-bnMV-q7v-py3.10/lib/python3.10/site-packages/serialdatalog/datalog.py',
   'PYMODULE'),
  ('sqlite3',
   '/nix/store/0n4y44dnaxafqs7cg625aldrb152x7bx-python3-3.10.10/lib/python3.10/sqlite3/__init__.py',
   'PYMODULE'),
  ('sqlite3.dump',
   '/nix/store/0n4y44dnaxafqs7cg625aldrb152x7bx-python3-3.10.10/lib/python3.10/sqlite3/dump.py',
   'PYMODULE'),
  ('sqlite3.dbapi2',
   '/nix/store/0n4y44dnaxafqs7cg625aldrb152x7bx-python3-3.10.10/lib/python3.10/sqlite3/dbapi2.py',
   'PYMODULE'),
  ('serial',
   '/home/al/.cache/pypoetry/virtualenvs/finometerdl-bnMV-q7v-py3.10/lib/python3.10/site-packages/serial/__init__.py',
   'PYMODULE'),
  ('serial.serialjava',
   '/home/al/.cache/pypoetry/virtualenvs/finometerdl-bnMV-q7v-py3.10/lib/python3.10/site-packages/serial/serialjava.py',
   'PYMODULE'),
  ('serial.serialposix',
   '/home/al/.cache/pypoetry/virtualenvs/finometerdl-bnMV-q7v-py3.10/lib/python3.10/site-packages/serial/serialposix.py',
   'PYMODULE'),
  ('serial.serialwin32',
   '/home/al/.cache/pypoetry/virtualenvs/finometerdl-bnMV-q7v-py3.10/lib/python3.10/site-packages/serial/serialwin32.py',
   'PYMODULE'),
  ('ctypes',
   '/nix/store/0n4y44dnaxafqs7cg625aldrb152x7bx-python3-3.10.10/lib/python3.10/ctypes/__init__.py',
   'PYMODULE'),
  ('ctypes._endian',
   '/nix/store/0n4y44dnaxafqs7cg625aldrb152x7bx-python3-3.10.10/lib/python3.10/ctypes/_endian.py',
   'PYMODULE'),
  ('serial.win32',
   '/home/al/.cache/pypoetry/virtualenvs/finometerdl-bnMV-q7v-py3.10/lib/python3.10/site-packages/serial/win32.py',
   'PYMODULE'),
  ('ctypes.wintypes',
   '/nix/store/0n4y44dnaxafqs7cg625aldrb152x7bx-python3-3.10.10/lib/python3.10/ctypes/wintypes.py',
   'PYMODULE'),
  ('serial.serialcli',
   '/home/al/.cache/pypoetry/virtualenvs/finometerdl-bnMV-q7v-py3.10/lib/python3.10/site-packages/serial/serialcli.py',
   'PYMODULE'),
  ('serial.serialutil',
   '/home/al/.cache/pypoetry/virtualenvs/finometerdl-bnMV-q7v-py3.10/lib/python3.10/site-packages/serial/serialutil.py',
   'PYMODULE'),
  ('__future__',
   '/nix/store/0n4y44dnaxafqs7cg625aldrb152x7bx-python3-3.10.10/lib/python3.10/__future__.py',
   'PYMODULE'),
  ('logging',
   '/nix/store/0n4y44dnaxafqs7cg625aldrb152x7bx-python3-3.10.10/lib/python3.10/logging/__init__.py',
   'PYMODULE')],
 [('ld-linux-x86-64.so.2', '/lib64/ld-linux-x86-64.so.2', 'BINARY'),
  ('libpython3.10.so.1.0',
   '/nix/store/0n4y44dnaxafqs7cg625aldrb152x7bx-python3-3.10.10/lib/libpython3.10.so.1.0',
   'BINARY'),
  ('libgcc_s.so.1',
   '/nix/store/8bmp6r3a0xfha3wj36phlc47clh9w81l-glibc-2.35-224/lib/libgcc_s.so.1',
   'BINARY'),
  ('lib-dynload/binascii.cpython-310-x86_64-linux-gnu.so',
   '/nix/store/0n4y44dnaxafqs7cg625aldrb152x7bx-python3-3.10.10/lib/python3.10/lib-dynload/binascii.cpython-310-x86_64-linux-gnu.so',
   'EXTENSION'),
  ('lib-dynload/_statistics.cpython-310-x86_64-linux-gnu.so',
   '/nix/store/0n4y44dnaxafqs7cg625aldrb152x7bx-python3-3.10.10/lib/python3.10/lib-dynload/_statistics.cpython-310-x86_64-linux-gnu.so',
   'EXTENSION'),
  ('lib-dynload/_contextvars.cpython-310-x86_64-linux-gnu.so',
   '/nix/store/0n4y44dnaxafqs7cg625aldrb152x7bx-python3-3.10.10/lib/python3.10/lib-dynload/_contextvars.cpython-310-x86_64-linux-gnu.so',
   'EXTENSION'),
  ('lib-dynload/_decimal.cpython-310-x86_64-linux-gnu.so',
   '/nix/store/0n4y44dnaxafqs7cg625aldrb152x7bx-python3-3.10.10/lib/python3.10/lib-dynload/_decimal.cpython-310-x86_64-linux-gnu.so',
   'EXTENSION'),
  ('lib-dynload/_hashlib.cpython-310-x86_64-linux-gnu.so',
   '/nix/store/0n4y44dnaxafqs7cg625aldrb152x7bx-python3-3.10.10/lib/python3.10/lib-dynload/_hashlib.cpython-310-x86_64-linux-gnu.so',
   'EXTENSION'),
  ('lib-dynload/_sha3.cpython-310-x86_64-linux-gnu.so',
   '/nix/store/0n4y44dnaxafqs7cg625aldrb152x7bx-python3-3.10.10/lib/python3.10/lib-dynload/_sha3.cpython-310-x86_64-linux-gnu.so',
   'EXTENSION'),
  ('lib-dynload/_blake2.cpython-310-x86_64-linux-gnu.so',
   '/nix/store/0n4y44dnaxafqs7cg625aldrb152x7bx-python3-3.10.10/lib/python3.10/lib-dynload/_blake2.cpython-310-x86_64-linux-gnu.so',
   'EXTENSION'),
  ('lib-dynload/_sha256.cpython-310-x86_64-linux-gnu.so',
   '/nix/store/0n4y44dnaxafqs7cg625aldrb152x7bx-python3-3.10.10/lib/python3.10/lib-dynload/_sha256.cpython-310-x86_64-linux-gnu.so',
   'EXTENSION'),
  ('lib-dynload/_md5.cpython-310-x86_64-linux-gnu.so',
   '/nix/store/0n4y44dnaxafqs7cg625aldrb152x7bx-python3-3.10.10/lib/python3.10/lib-dynload/_md5.cpython-310-x86_64-linux-gnu.so',
   'EXTENSION'),
  ('lib-dynload/_sha1.cpython-310-x86_64-linux-gnu.so',
   '/nix/store/0n4y44dnaxafqs7cg625aldrb152x7bx-python3-3.10.10/lib/python3.10/lib-dynload/_sha1.cpython-310-x86_64-linux-gnu.so',
   'EXTENSION'),
  ('lib-dynload/_sha512.cpython-310-x86_64-linux-gnu.so',
   '/nix/store/0n4y44dnaxafqs7cg625aldrb152x7bx-python3-3.10.10/lib/python3.10/lib-dynload/_sha512.cpython-310-x86_64-linux-gnu.so',
   'EXTENSION'),
  ('lib-dynload/_random.cpython-310-x86_64-linux-gnu.so',
   '/nix/store/0n4y44dnaxafqs7cg625aldrb152x7bx-python3-3.10.10/lib/python3.10/lib-dynload/_random.cpython-310-x86_64-linux-gnu.so',
   'EXTENSION'),
  ('lib-dynload/_bisect.cpython-310-x86_64-linux-gnu.so',
   '/nix/store/0n4y44dnaxafqs7cg625aldrb152x7bx-python3-3.10.10/lib/python3.10/lib-dynload/_bisect.cpython-310-x86_64-linux-gnu.so',
   'EXTENSION'),
  ('lib-dynload/math.cpython-310-x86_64-linux-gnu.so',
   '/nix/store/0n4y44dnaxafqs7cg625aldrb152x7bx-python3-3.10.10/lib/python3.10/lib-dynload/math.cpython-310-x86_64-linux-gnu.so',
   'EXTENSION'),
  ('lib-dynload/_datetime.cpython-310-x86_64-linux-gnu.so',
   '/nix/store/0n4y44dnaxafqs7cg625aldrb152x7bx-python3-3.10.10/lib/python3.10/lib-dynload/_datetime.cpython-310-x86_64-linux-gnu.so',
   'EXTENSION'),
  ('lib-dynload/_struct.cpython-310-x86_64-linux-gnu.so',
   '/nix/store/0n4y44dnaxafqs7cg625aldrb152x7bx-python3-3.10.10/lib/python3.10/lib-dynload/_struct.cpython-310-x86_64-linux-gnu.so',
   'EXTENSION'),
  ('lib-dynload/array.cpython-310-x86_64-linux-gnu.so',
   '/nix/store/0n4y44dnaxafqs7cg625aldrb152x7bx-python3-3.10.10/lib/python3.10/lib-dynload/array.cpython-310-x86_64-linux-gnu.so',
   'EXTENSION'),
  ('lib-dynload/select.cpython-310-x86_64-linux-gnu.so',
   '/nix/store/0n4y44dnaxafqs7cg625aldrb152x7bx-python3-3.10.10/lib/python3.10/lib-dynload/select.cpython-310-x86_64-linux-gnu.so',
   'EXTENSION'),
  ('lib-dynload/_socket.cpython-310-x86_64-linux-gnu.so',
   '/nix/store/0n4y44dnaxafqs7cg625aldrb152x7bx-python3-3.10.10/lib/python3.10/lib-dynload/_socket.cpython-310-x86_64-linux-gnu.so',
   'EXTENSION'),
  ('lib-dynload/_lzma.cpython-310-x86_64-linux-gnu.so',
   '/nix/store/0n4y44dnaxafqs7cg625aldrb152x7bx-python3-3.10.10/lib/python3.10/lib-dynload/_lzma.cpython-310-x86_64-linux-gnu.so',
   'EXTENSION'),
  ('lib-dynload/_bz2.cpython-310-x86_64-linux-gnu.so',
   '/nix/store/0n4y44dnaxafqs7cg625aldrb152x7bx-python3-3.10.10/lib/python3.10/lib-dynload/_bz2.cpython-310-x86_64-linux-gnu.so',
   'EXTENSION'),
  ('lib-dynload/zlib.cpython-310-x86_64-linux-gnu.so',
   '/nix/store/0n4y44dnaxafqs7cg625aldrb152x7bx-python3-3.10.10/lib/python3.10/lib-dynload/zlib.cpython-310-x86_64-linux-gnu.so',
   'EXTENSION'),
  ('lib-dynload/grp.cpython-310-x86_64-linux-gnu.so',
   '/nix/store/0n4y44dnaxafqs7cg625aldrb152x7bx-python3-3.10.10/lib/python3.10/lib-dynload/grp.cpython-310-x86_64-linux-gnu.so',
   'EXTENSION'),
  ('lib-dynload/_csv.cpython-310-x86_64-linux-gnu.so',
   '/nix/store/0n4y44dnaxafqs7cg625aldrb152x7bx-python3-3.10.10/lib/python3.10/lib-dynload/_csv.cpython-310-x86_64-linux-gnu.so',
   'EXTENSION'),
  ('lib-dynload/resource.cpython-310-x86_64-linux-gnu.so',
   '/nix/store/0n4y44dnaxafqs7cg625aldrb152x7bx-python3-3.10.10/lib/python3.10/lib-dynload/resource.cpython-310-x86_64-linux-gnu.so',
   'EXTENSION'),
  ('lib-dynload/_opcode.cpython-310-x86_64-linux-gnu.so',
   '/nix/store/0n4y44dnaxafqs7cg625aldrb152x7bx-python3-3.10.10/lib/python3.10/lib-dynload/_opcode.cpython-310-x86_64-linux-gnu.so',
   'EXTENSION'),
  ('lib-dynload/_pickle.cpython-310-x86_64-linux-gnu.so',
   '/nix/store/0n4y44dnaxafqs7cg625aldrb152x7bx-python3-3.10.10/lib/python3.10/lib-dynload/_pickle.cpython-310-x86_64-linux-gnu.so',
   'EXTENSION'),
  ('lib-dynload/_multibytecodec.cpython-310-x86_64-linux-gnu.so',
   '/nix/store/0n4y44dnaxafqs7cg625aldrb152x7bx-python3-3.10.10/lib/python3.10/lib-dynload/_multibytecodec.cpython-310-x86_64-linux-gnu.so',
   'EXTENSION'),
  ('lib-dynload/_codecs_jp.cpython-310-x86_64-linux-gnu.so',
   '/nix/store/0n4y44dnaxafqs7cg625aldrb152x7bx-python3-3.10.10/lib/python3.10/lib-dynload/_codecs_jp.cpython-310-x86_64-linux-gnu.so',
   'EXTENSION'),
  ('lib-dynload/_codecs_kr.cpython-310-x86_64-linux-gnu.so',
   '/nix/store/0n4y44dnaxafqs7cg625aldrb152x7bx-python3-3.10.10/lib/python3.10/lib-dynload/_codecs_kr.cpython-310-x86_64-linux-gnu.so',
   'EXTENSION'),
  ('lib-dynload/_codecs_iso2022.cpython-310-x86_64-linux-gnu.so',
   '/nix/store/0n4y44dnaxafqs7cg625aldrb152x7bx-python3-3.10.10/lib/python3.10/lib-dynload/_codecs_iso2022.cpython-310-x86_64-linux-gnu.so',
   'EXTENSION'),
  ('lib-dynload/unicodedata.cpython-310-x86_64-linux-gnu.so',
   '/nix/store/0n4y44dnaxafqs7cg625aldrb152x7bx-python3-3.10.10/lib/python3.10/lib-dynload/unicodedata.cpython-310-x86_64-linux-gnu.so',
   'EXTENSION'),
  ('lib-dynload/_codecs_cn.cpython-310-x86_64-linux-gnu.so',
   '/nix/store/0n4y44dnaxafqs7cg625aldrb152x7bx-python3-3.10.10/lib/python3.10/lib-dynload/_codecs_cn.cpython-310-x86_64-linux-gnu.so',
   'EXTENSION'),
  ('lib-dynload/_codecs_tw.cpython-310-x86_64-linux-gnu.so',
   '/nix/store/0n4y44dnaxafqs7cg625aldrb152x7bx-python3-3.10.10/lib/python3.10/lib-dynload/_codecs_tw.cpython-310-x86_64-linux-gnu.so',
   'EXTENSION'),
  ('lib-dynload/_codecs_hk.cpython-310-x86_64-linux-gnu.so',
   '/nix/store/0n4y44dnaxafqs7cg625aldrb152x7bx-python3-3.10.10/lib/python3.10/lib-dynload/_codecs_hk.cpython-310-x86_64-linux-gnu.so',
   'EXTENSION'),
  ('lib-dynload/_heapq.cpython-310-x86_64-linux-gnu.so',
   '/nix/store/0n4y44dnaxafqs7cg625aldrb152x7bx-python3-3.10.10/lib/python3.10/lib-dynload/_heapq.cpython-310-x86_64-linux-gnu.so',
   'EXTENSION'),
  ('lib-dynload/termios.cpython-310-x86_64-linux-gnu.so',
   '/nix/store/0n4y44dnaxafqs7cg625aldrb152x7bx-python3-3.10.10/lib/python3.10/lib-dynload/termios.cpython-310-x86_64-linux-gnu.so',
   'EXTENSION'),
  ('lib-dynload/_ssl.cpython-310-x86_64-linux-gnu.so',
   '/nix/store/0n4y44dnaxafqs7cg625aldrb152x7bx-python3-3.10.10/lib/python3.10/lib-dynload/_ssl.cpython-310-x86_64-linux-gnu.so',
   'EXTENSION'),
  ('lib-dynload/_posixsubprocess.cpython-310-x86_64-linux-gnu.so',
   '/nix/store/0n4y44dnaxafqs7cg625aldrb152x7bx-python3-3.10.10/lib/python3.10/lib-dynload/_posixsubprocess.cpython-310-x86_64-linux-gnu.so',
   'EXTENSION'),
  ('lib-dynload/fcntl.cpython-310-x86_64-linux-gnu.so',
   '/nix/store/0n4y44dnaxafqs7cg625aldrb152x7bx-python3-3.10.10/lib/python3.10/lib-dynload/fcntl.cpython-310-x86_64-linux-gnu.so',
   'EXTENSION'),
  ('lib-dynload/_sqlite3.cpython-310-x86_64-linux-gnu.so',
   '/nix/store/0n4y44dnaxafqs7cg625aldrb152x7bx-python3-3.10.10/lib/python3.10/lib-dynload/_sqlite3.cpython-310-x86_64-linux-gnu.so',
   'EXTENSION'),
  ('lib-dynload/_ctypes.cpython-310-x86_64-linux-gnu.so',
   '/nix/store/0n4y44dnaxafqs7cg625aldrb152x7bx-python3-3.10.10/lib/python3.10/lib-dynload/_ctypes.cpython-310-x86_64-linux-gnu.so',
   'EXTENSION'),
  ('libz.so.1',
   '/nix/store/rg9b3w1rqm7b5cwr9g8d0z6jii1g462n-zlib-1.2.13/lib/libz.so.1',
   'BINARY'),
  ('libssl.so.3',
   '/nix/store/dmzrvbpr3ljnnlxr3fhy1vpl1b57zfdp-openssl-3.0.8/lib/libssl.so.3',
   'BINARY'),
  ('libcrypto.so.3',
   '/nix/store/dmzrvbpr3ljnnlxr3fhy1vpl1b57zfdp-openssl-3.0.8/lib/libcrypto.so.3',
   'BINARY'),
  ('liblzma.so.5',
   '/nix/store/inzbkps4dv01p0c5rzdiqp1lzci73kj6-xz-5.4.1/lib/liblzma.so.5',
   'BINARY'),
  ('libbz2.so.1',
   '/nix/store/6nazsqj8b9vb38igx6s6ppsy958np62k-bzip2-1.0.8/lib/libbz2.so.1',
   'BINARY'),
  ('libsqlite3.so.0',
   '/nix/store/rd9nsnby7yliazv6jija5w431xahxpsx-sqlite-3.41.0/lib/libsqlite3.so.0',
   'BINARY'),
  ('libffi.so.8',
   '/nix/store/5k2kf42dz1hy8a8li9rzw88mb7r7mifq-libffi-3.4.4/lib/libffi.so.8',
   'BINARY')],
 [],
 [],
 [('base_library.zip',
   '/home/al/Programs/finometer-data-logger/build/finometer/base_library.zip',
   'DATA')],
 [])
