('/home/al/Programs/finometer-data-logger/dist/finometer',
 True,
 False,
 False,
 None,
 None,
 False,
 False,
 None,
 True,
 True,
 False,
 None,
 None,
 None,
 '/home/al/Programs/finometer-data-logger/build/finometer/finometer.pkg',
 [('PYZ-00.pyz',
   '/home/al/Programs/finometer-data-logger/build/finometer/PYZ-00.pyz',
   'PYZ'),
  ('struct',
   '/home/al/Programs/finometer-data-logger/build/finometer/localpycs/struct.pyc',
   'PYMODULE'),
  ('pyimod01_archive',
   '/home/al/Programs/finometer-data-logger/build/finometer/localpycs/pyimod01_archive.pyc',
   'PYMODULE'),
  ('pyimod02_importers',
   '/home/al/Programs/finometer-data-logger/build/finometer/localpycs/pyimod02_importers.pyc',
   'PYMODULE'),
  ('pyimod03_ctypes',
   '/home/al/Programs/finometer-data-logger/build/finometer/localpycs/pyimod03_ctypes.pyc',
   'PYMODULE'),
  ('pyiboot01_bootstrap',
   '/home/al/.cache/pypoetry/virtualenvs/finometerdl-bnMV-q7v-py3.10/lib/python3.10/site-packages/PyInstaller/loader/pyiboot01_bootstrap.py',
   'PYSOURCE'),
  ('pyi_rth_inspect',
   '/home/al/.cache/pypoetry/virtualenvs/finometerdl-bnMV-q7v-py3.10/lib/python3.10/site-packages/PyInstaller/hooks/rthooks/pyi_rth_inspect.py',
   'PYSOURCE'),
  ('finometer',
   '/home/al/Programs/finometer-data-logger/finometer.py',
   'PYSOURCE'),
  ('ld-linux-x86-64.so.2', '/lib64/ld-linux-x86-64.so.2', 'BINARY'),
  ('libpython3.10.so.1.0',
   '/nix/store/0n4y44dnaxafqs7cg625aldrb152x7bx-python3-3.10.10/lib/libpython3.10.so.1.0',
   'BINARY'),
  ('libgcc_s.so.1',
   '/nix/store/8bmp6r3a0xfha3wj36phlc47clh9w81l-glibc-2.35-224/lib/libgcc_s.so.1',
   'BINARY'),
  ('lib-dynload/binascii.cpython-310-x86_64-linux-gnu.so',
   '/nix/store/0n4y44dnaxafqs7cg625aldrb152x7bx-python3-3.10.10/lib/python3.10/lib-dynload/binascii.cpython-310-x86_64-linux-gnu.so',
   'EXTENSION'),
  ('lib-dynload/_statistics.cpython-310-x86_64-linux-gnu.so',
   '/nix/store/0n4y44dnaxafqs7cg625aldrb152x7bx-python3-3.10.10/lib/python3.10/lib-dynload/_statistics.cpython-310-x86_64-linux-gnu.so',
   'EXTENSION'),
  ('lib-dynload/_contextvars.cpython-310-x86_64-linux-gnu.so',
   '/nix/store/0n4y44dnaxafqs7cg625aldrb152x7bx-python3-3.10.10/lib/python3.10/lib-dynload/_contextvars.cpython-310-x86_64-linux-gnu.so',
   'EXTENSION'),
  ('lib-dynload/_decimal.cpython-310-x86_64-linux-gnu.so',
   '/nix/store/0n4y44dnaxafqs7cg625aldrb152x7bx-python3-3.10.10/lib/python3.10/lib-dynload/_decimal.cpython-310-x86_64-linux-gnu.so',
   'EXTENSION'),
  ('lib-dynload/_hashlib.cpython-310-x86_64-linux-gnu.so',
   '/nix/store/0n4y44dnaxafqs7cg625aldrb152x7bx-python3-3.10.10/lib/python3.10/lib-dynload/_hashlib.cpython-310-x86_64-linux-gnu.so',
   'EXTENSION'),
  ('lib-dynload/_sha3.cpython-310-x86_64-linux-gnu.so',
   '/nix/store/0n4y44dnaxafqs7cg625aldrb152x7bx-python3-3.10.10/lib/python3.10/lib-dynload/_sha3.cpython-310-x86_64-linux-gnu.so',
   'EXTENSION'),
  ('lib-dynload/_blake2.cpython-310-x86_64-linux-gnu.so',
   '/nix/store/0n4y44dnaxafqs7cg625aldrb152x7bx-python3-3.10.10/lib/python3.10/lib-dynload/_blake2.cpython-310-x86_64-linux-gnu.so',
   'EXTENSION'),
  ('lib-dynload/_sha256.cpython-310-x86_64-linux-gnu.so',
   '/nix/store/0n4y44dnaxafqs7cg625aldrb152x7bx-python3-3.10.10/lib/python3.10/lib-dynload/_sha256.cpython-310-x86_64-linux-gnu.so',
   'EXTENSION'),
  ('lib-dynload/_md5.cpython-310-x86_64-linux-gnu.so',
   '/nix/store/0n4y44dnaxafqs7cg625aldrb152x7bx-python3-3.10.10/lib/python3.10/lib-dynload/_md5.cpython-310-x86_64-linux-gnu.so',
   'EXTENSION'),
  ('lib-dynload/_sha1.cpython-310-x86_64-linux-gnu.so',
   '/nix/store/0n4y44dnaxafqs7cg625aldrb152x7bx-python3-3.10.10/lib/python3.10/lib-dynload/_sha1.cpython-310-x86_64-linux-gnu.so',
   'EXTENSION'),
  ('lib-dynload/_sha512.cpython-310-x86_64-linux-gnu.so',
   '/nix/store/0n4y44dnaxafqs7cg625aldrb152x7bx-python3-3.10.10/lib/python3.10/lib-dynload/_sha512.cpython-310-x86_64-linux-gnu.so',
   'EXTENSION'),
  ('lib-dynload/_random.cpython-310-x86_64-linux-gnu.so',
   '/nix/store/0n4y44dnaxafqs7cg625aldrb152x7bx-python3-3.10.10/lib/python3.10/lib-dynload/_random.cpython-310-x86_64-linux-gnu.so',
   'EXTENSION'),
  ('lib-dynload/_bisect.cpython-310-x86_64-linux-gnu.so',
   '/nix/store/0n4y44dnaxafqs7cg625aldrb152x7bx-python3-3.10.10/lib/python3.10/lib-dynload/_bisect.cpython-310-x86_64-linux-gnu.so',
   'EXTENSION'),
  ('lib-dynload/math.cpython-310-x86_64-linux-gnu.so',
   '/nix/store/0n4y44dnaxafqs7cg625aldrb152x7bx-python3-3.10.10/lib/python3.10/lib-dynload/math.cpython-310-x86_64-linux-gnu.so',
   'EXTENSION'),
  ('lib-dynload/_datetime.cpython-310-x86_64-linux-gnu.so',
   '/nix/store/0n4y44dnaxafqs7cg625aldrb152x7bx-python3-3.10.10/lib/python3.10/lib-dynload/_datetime.cpython-310-x86_64-linux-gnu.so',
   'EXTENSION'),
  ('lib-dynload/_struct.cpython-310-x86_64-linux-gnu.so',
   '/nix/store/0n4y44dnaxafqs7cg625aldrb152x7bx-python3-3.10.10/lib/python3.10/lib-dynload/_struct.cpython-310-x86_64-linux-gnu.so',
   'EXTENSION'),
  ('lib-dynload/array.cpython-310-x86_64-linux-gnu.so',
   '/nix/store/0n4y44dnaxafqs7cg625aldrb152x7bx-python3-3.10.10/lib/python3.10/lib-dynload/array.cpython-310-x86_64-linux-gnu.so',
   'EXTENSION'),
  ('lib-dynload/select.cpython-310-x86_64-linux-gnu.so',
   '/nix/store/0n4y44dnaxafqs7cg625aldrb152x7bx-python3-3.10.10/lib/python3.10/lib-dynload/select.cpython-310-x86_64-linux-gnu.so',
   'EXTENSION'),
  ('lib-dynload/_socket.cpython-310-x86_64-linux-gnu.so',
   '/nix/store/0n4y44dnaxafqs7cg625aldrb152x7bx-python3-3.10.10/lib/python3.10/lib-dynload/_socket.cpython-310-x86_64-linux-gnu.so',
   'EXTENSION'),
  ('lib-dynload/_lzma.cpython-310-x86_64-linux-gnu.so',
   '/nix/store/0n4y44dnaxafqs7cg625aldrb152x7bx-python3-3.10.10/lib/python3.10/lib-dynload/_lzma.cpython-310-x86_64-linux-gnu.so',
   'EXTENSION'),
  ('lib-dynload/_bz2.cpython-310-x86_64-linux-gnu.so',
   '/nix/store/0n4y44dnaxafqs7cg625aldrb152x7bx-python3-3.10.10/lib/python3.10/lib-dynload/_bz2.cpython-310-x86_64-linux-gnu.so',
   'EXTENSION'),
  ('lib-dynload/zlib.cpython-310-x86_64-linux-gnu.so',
   '/nix/store/0n4y44dnaxafqs7cg625aldrb152x7bx-python3-3.10.10/lib/python3.10/lib-dynload/zlib.cpython-310-x86_64-linux-gnu.so',
   'EXTENSION'),
  ('lib-dynload/grp.cpython-310-x86_64-linux-gnu.so',
   '/nix/store/0n4y44dnaxafqs7cg625aldrb152x7bx-python3-3.10.10/lib/python3.10/lib-dynload/grp.cpython-310-x86_64-linux-gnu.so',
   'EXTENSION'),
  ('lib-dynload/_csv.cpython-310-x86_64-linux-gnu.so',
   '/nix/store/0n4y44dnaxafqs7cg625aldrb152x7bx-python3-3.10.10/lib/python3.10/lib-dynload/_csv.cpython-310-x86_64-linux-gnu.so',
   'EXTENSION'),
  ('lib-dynload/resource.cpython-310-x86_64-linux-gnu.so',
   '/nix/store/0n4y44dnaxafqs7cg625aldrb152x7bx-python3-3.10.10/lib/python3.10/lib-dynload/resource.cpython-310-x86_64-linux-gnu.so',
   'EXTENSION'),
  ('lib-dynload/_opcode.cpython-310-x86_64-linux-gnu.so',
   '/nix/store/0n4y44dnaxafqs7cg625aldrb152x7bx-python3-3.10.10/lib/python3.10/lib-dynload/_opcode.cpython-310-x86_64-linux-gnu.so',
   'EXTENSION'),
  ('lib-dynload/_pickle.cpython-310-x86_64-linux-gnu.so',
   '/nix/store/0n4y44dnaxafqs7cg625aldrb152x7bx-python3-3.10.10/lib/python3.10/lib-dynload/_pickle.cpython-310-x86_64-linux-gnu.so',
   'EXTENSION'),
  ('lib-dynload/_multibytecodec.cpython-310-x86_64-linux-gnu.so',
   '/nix/store/0n4y44dnaxafqs7cg625aldrb152x7bx-python3-3.10.10/lib/python3.10/lib-dynload/_multibytecodec.cpython-310-x86_64-linux-gnu.so',
   'EXTENSION'),
  ('lib-dynload/_codecs_jp.cpython-310-x86_64-linux-gnu.so',
   '/nix/store/0n4y44dnaxafqs7cg625aldrb152x7bx-python3-3.10.10/lib/python3.10/lib-dynload/_codecs_jp.cpython-310-x86_64-linux-gnu.so',
   'EXTENSION'),
  ('lib-dynload/_codecs_kr.cpython-310-x86_64-linux-gnu.so',
   '/nix/store/0n4y44dnaxafqs7cg625aldrb152x7bx-python3-3.10.10/lib/python3.10/lib-dynload/_codecs_kr.cpython-310-x86_64-linux-gnu.so',
   'EXTENSION'),
  ('lib-dynload/_codecs_iso2022.cpython-310-x86_64-linux-gnu.so',
   '/nix/store/0n4y44dnaxafqs7cg625aldrb152x7bx-python3-3.10.10/lib/python3.10/lib-dynload/_codecs_iso2022.cpython-310-x86_64-linux-gnu.so',
   'EXTENSION'),
  ('lib-dynload/unicodedata.cpython-310-x86_64-linux-gnu.so',
   '/nix/store/0n4y44dnaxafqs7cg625aldrb152x7bx-python3-3.10.10/lib/python3.10/lib-dynload/unicodedata.cpython-310-x86_64-linux-gnu.so',
   'EXTENSION'),
  ('lib-dynload/_codecs_cn.cpython-310-x86_64-linux-gnu.so',
   '/nix/store/0n4y44dnaxafqs7cg625aldrb152x7bx-python3-3.10.10/lib/python3.10/lib-dynload/_codecs_cn.cpython-310-x86_64-linux-gnu.so',
   'EXTENSION'),
  ('lib-dynload/_codecs_tw.cpython-310-x86_64-linux-gnu.so',
   '/nix/store/0n4y44dnaxafqs7cg625aldrb152x7bx-python3-3.10.10/lib/python3.10/lib-dynload/_codecs_tw.cpython-310-x86_64-linux-gnu.so',
   'EXTENSION'),
  ('lib-dynload/_codecs_hk.cpython-310-x86_64-linux-gnu.so',
   '/nix/store/0n4y44dnaxafqs7cg625aldrb152x7bx-python3-3.10.10/lib/python3.10/lib-dynload/_codecs_hk.cpython-310-x86_64-linux-gnu.so',
   'EXTENSION'),
  ('lib-dynload/_heapq.cpython-310-x86_64-linux-gnu.so',
   '/nix/store/0n4y44dnaxafqs7cg625aldrb152x7bx-python3-3.10.10/lib/python3.10/lib-dynload/_heapq.cpython-310-x86_64-linux-gnu.so',
   'EXTENSION'),
  ('lib-dynload/termios.cpython-310-x86_64-linux-gnu.so',
   '/nix/store/0n4y44dnaxafqs7cg625aldrb152x7bx-python3-3.10.10/lib/python3.10/lib-dynload/termios.cpython-310-x86_64-linux-gnu.so',
   'EXTENSION'),
  ('lib-dynload/_ssl.cpython-310-x86_64-linux-gnu.so',
   '/nix/store/0n4y44dnaxafqs7cg625aldrb152x7bx-python3-3.10.10/lib/python3.10/lib-dynload/_ssl.cpython-310-x86_64-linux-gnu.so',
   'EXTENSION'),
  ('lib-dynload/_posixsubprocess.cpython-310-x86_64-linux-gnu.so',
   '/nix/store/0n4y44dnaxafqs7cg625aldrb152x7bx-python3-3.10.10/lib/python3.10/lib-dynload/_posixsubprocess.cpython-310-x86_64-linux-gnu.so',
   'EXTENSION'),
  ('lib-dynload/fcntl.cpython-310-x86_64-linux-gnu.so',
   '/nix/store/0n4y44dnaxafqs7cg625aldrb152x7bx-python3-3.10.10/lib/python3.10/lib-dynload/fcntl.cpython-310-x86_64-linux-gnu.so',
   'EXTENSION'),
  ('lib-dynload/_sqlite3.cpython-310-x86_64-linux-gnu.so',
   '/nix/store/0n4y44dnaxafqs7cg625aldrb152x7bx-python3-3.10.10/lib/python3.10/lib-dynload/_sqlite3.cpython-310-x86_64-linux-gnu.so',
   'EXTENSION'),
  ('lib-dynload/_ctypes.cpython-310-x86_64-linux-gnu.so',
   '/nix/store/0n4y44dnaxafqs7cg625aldrb152x7bx-python3-3.10.10/lib/python3.10/lib-dynload/_ctypes.cpython-310-x86_64-linux-gnu.so',
   'EXTENSION'),
  ('libz.so.1',
   '/nix/store/rg9b3w1rqm7b5cwr9g8d0z6jii1g462n-zlib-1.2.13/lib/libz.so.1',
   'BINARY'),
  ('libssl.so.3',
   '/nix/store/dmzrvbpr3ljnnlxr3fhy1vpl1b57zfdp-openssl-3.0.8/lib/libssl.so.3',
   'BINARY'),
  ('libcrypto.so.3',
   '/nix/store/dmzrvbpr3ljnnlxr3fhy1vpl1b57zfdp-openssl-3.0.8/lib/libcrypto.so.3',
   'BINARY'),
  ('liblzma.so.5',
   '/nix/store/inzbkps4dv01p0c5rzdiqp1lzci73kj6-xz-5.4.1/lib/liblzma.so.5',
   'BINARY'),
  ('libbz2.so.1',
   '/nix/store/6nazsqj8b9vb38igx6s6ppsy958np62k-bzip2-1.0.8/lib/libbz2.so.1',
   'BINARY'),
  ('libsqlite3.so.0',
   '/nix/store/rd9nsnby7yliazv6jija5w431xahxpsx-sqlite-3.41.0/lib/libsqlite3.so.0',
   'BINARY'),
  ('libffi.so.8',
   '/nix/store/5k2kf42dz1hy8a8li9rzw88mb7r7mifq-libffi-3.4.4/lib/libffi.so.8',
   'BINARY'),
  ('base_library.zip',
   '/home/al/Programs/finometer-data-logger/build/finometer/base_library.zip',
   'DATA')],
 [],
 False,
 False,
 1682428614,
 [('run',
   '/home/al/.cache/pypoetry/virtualenvs/finometerdl-bnMV-q7v-py3.10/lib/python3.10/site-packages/PyInstaller/bootloader/Linux-64bit-intel/run',
   'EXECUTABLE')])
