('/home/al/Programs/finometer-data-logger/build/finometer/PYZ-00.pyz',
 [('__future__',
   '/nix/store/0n4y44dnaxafqs7cg625aldrb152x7bx-python3-3.10.10/lib/python3.10/__future__.py',
   'PYMODULE'),
  ('_compat_pickle',
   '/nix/store/0n4y44dnaxafqs7cg625aldrb152x7bx-python3-3.10.10/lib/python3.10/_compat_pickle.py',
   'PYMODULE'),
  ('_compression',
   '/nix/store/0n4y44dnaxafqs7cg625aldrb152x7bx-python3-3.10.10/lib/python3.10/_compression.py',
   'PYMODULE'),
  ('_py_abc',
   '/nix/store/0n4y44dnaxafqs7cg625aldrb152x7bx-python3-3.10.10/lib/python3.10/_py_abc.py',
   'PYMODULE'),
  ('_pydecimal',
   '/nix/store/0n4y44dnaxafqs7cg625aldrb152x7bx-python3-3.10.10/lib/python3.10/_pydecimal.py',
   'PYMODULE'),
  ('_strptime',
   '/nix/store/0n4y44dnaxafqs7cg625aldrb152x7bx-python3-3.10.10/lib/python3.10/_strptime.py',
   'PYMODULE'),
  ('_threading_local',
   '/nix/store/0n4y44dnaxafqs7cg625aldrb152x7bx-python3-3.10.10/lib/python3.10/_threading_local.py',
   'PYMODULE'),
  ('argparse',
   '/nix/store/0n4y44dnaxafqs7cg625aldrb152x7bx-python3-3.10.10/lib/python3.10/argparse.py',
   'PYMODULE'),
  ('ast',
   '/nix/store/0n4y44dnaxafqs7cg625aldrb152x7bx-python3-3.10.10/lib/python3.10/ast.py',
   'PYMODULE'),
  ('base64',
   '/nix/store/0n4y44dnaxafqs7cg625aldrb152x7bx-python3-3.10.10/lib/python3.10/base64.py',
   'PYMODULE'),
  ('bisect',
   '/nix/store/0n4y44dnaxafqs7cg625aldrb152x7bx-python3-3.10.10/lib/python3.10/bisect.py',
   'PYMODULE'),
  ('bz2',
   '/nix/store/0n4y44dnaxafqs7cg625aldrb152x7bx-python3-3.10.10/lib/python3.10/bz2.py',
   'PYMODULE'),
  ('calendar',
   '/nix/store/0n4y44dnaxafqs7cg625aldrb152x7bx-python3-3.10.10/lib/python3.10/calendar.py',
   'PYMODULE'),
  ('contextlib',
   '/nix/store/0n4y44dnaxafqs7cg625aldrb152x7bx-python3-3.10.10/lib/python3.10/contextlib.py',
   'PYMODULE'),
  ('contextvars',
   '/nix/store/0n4y44dnaxafqs7cg625aldrb152x7bx-python3-3.10.10/lib/python3.10/contextvars.py',
   'PYMODULE'),
  ('copy',
   '/nix/store/0n4y44dnaxafqs7cg625aldrb152x7bx-python3-3.10.10/lib/python3.10/copy.py',
   'PYMODULE'),
  ('csv',
   '/nix/store/0n4y44dnaxafqs7cg625aldrb152x7bx-python3-3.10.10/lib/python3.10/csv.py',
   'PYMODULE'),
  ('ctypes',
   '/nix/store/0n4y44dnaxafqs7cg625aldrb152x7bx-python3-3.10.10/lib/python3.10/ctypes/__init__.py',
   'PYMODULE'),
  ('ctypes._endian',
   '/nix/store/0n4y44dnaxafqs7cg625aldrb152x7bx-python3-3.10.10/lib/python3.10/ctypes/_endian.py',
   'PYMODULE'),
  ('ctypes.wintypes',
   '/nix/store/0n4y44dnaxafqs7cg625aldrb152x7bx-python3-3.10.10/lib/python3.10/ctypes/wintypes.py',
   'PYMODULE'),
  ('dataclasses',
   '/nix/store/0n4y44dnaxafqs7cg625aldrb152x7bx-python3-3.10.10/lib/python3.10/dataclasses.py',
   'PYMODULE'),
  ('datetime',
   '/nix/store/0n4y44dnaxafqs7cg625aldrb152x7bx-python3-3.10.10/lib/python3.10/datetime.py',
   'PYMODULE'),
  ('decimal',
   '/nix/store/0n4y44dnaxafqs7cg625aldrb152x7bx-python3-3.10.10/lib/python3.10/decimal.py',
   'PYMODULE'),
  ('dis',
   '/nix/store/0n4y44dnaxafqs7cg625aldrb152x7bx-python3-3.10.10/lib/python3.10/dis.py',
   'PYMODULE'),
  ('email',
   '/nix/store/0n4y44dnaxafqs7cg625aldrb152x7bx-python3-3.10.10/lib/python3.10/email/__init__.py',
   'PYMODULE'),
  ('email._encoded_words',
   '/nix/store/0n4y44dnaxafqs7cg625aldrb152x7bx-python3-3.10.10/lib/python3.10/email/_encoded_words.py',
   'PYMODULE'),
  ('email._header_value_parser',
   '/nix/store/0n4y44dnaxafqs7cg625aldrb152x7bx-python3-3.10.10/lib/python3.10/email/_header_value_parser.py',
   'PYMODULE'),
  ('email._parseaddr',
   '/nix/store/0n4y44dnaxafqs7cg625aldrb152x7bx-python3-3.10.10/lib/python3.10/email/_parseaddr.py',
   'PYMODULE'),
  ('email._policybase',
   '/nix/store/0n4y44dnaxafqs7cg625aldrb152x7bx-python3-3.10.10/lib/python3.10/email/_policybase.py',
   'PYMODULE'),
  ('email.base64mime',
   '/nix/store/0n4y44dnaxafqs7cg625aldrb152x7bx-python3-3.10.10/lib/python3.10/email/base64mime.py',
   'PYMODULE'),
  ('email.charset',
   '/nix/store/0n4y44dnaxafqs7cg625aldrb152x7bx-python3-3.10.10/lib/python3.10/email/charset.py',
   'PYMODULE'),
  ('email.contentmanager',
   '/nix/store/0n4y44dnaxafqs7cg625aldrb152x7bx-python3-3.10.10/lib/python3.10/email/contentmanager.py',
   'PYMODULE'),
  ('email.encoders',
   '/nix/store/0n4y44dnaxafqs7cg625aldrb152x7bx-python3-3.10.10/lib/python3.10/email/encoders.py',
   'PYMODULE'),
  ('email.errors',
   '/nix/store/0n4y44dnaxafqs7cg625aldrb152x7bx-python3-3.10.10/lib/python3.10/email/errors.py',
   'PYMODULE'),
  ('email.feedparser',
   '/nix/store/0n4y44dnaxafqs7cg625aldrb152x7bx-python3-3.10.10/lib/python3.10/email/feedparser.py',
   'PYMODULE'),
  ('email.generator',
   '/nix/store/0n4y44dnaxafqs7cg625aldrb152x7bx-python3-3.10.10/lib/python3.10/email/generator.py',
   'PYMODULE'),
  ('email.header',
   '/nix/store/0n4y44dnaxafqs7cg625aldrb152x7bx-python3-3.10.10/lib/python3.10/email/header.py',
   'PYMODULE'),
  ('email.headerregistry',
   '/nix/store/0n4y44dnaxafqs7cg625aldrb152x7bx-python3-3.10.10/lib/python3.10/email/headerregistry.py',
   'PYMODULE'),
  ('email.iterators',
   '/nix/store/0n4y44dnaxafqs7cg625aldrb152x7bx-python3-3.10.10/lib/python3.10/email/iterators.py',
   'PYMODULE'),
  ('email.message',
   '/nix/store/0n4y44dnaxafqs7cg625aldrb152x7bx-python3-3.10.10/lib/python3.10/email/message.py',
   'PYMODULE'),
  ('email.parser',
   '/nix/store/0n4y44dnaxafqs7cg625aldrb152x7bx-python3-3.10.10/lib/python3.10/email/parser.py',
   'PYMODULE'),
  ('email.policy',
   '/nix/store/0n4y44dnaxafqs7cg625aldrb152x7bx-python3-3.10.10/lib/python3.10/email/policy.py',
   'PYMODULE'),
  ('email.quoprimime',
   '/nix/store/0n4y44dnaxafqs7cg625aldrb152x7bx-python3-3.10.10/lib/python3.10/email/quoprimime.py',
   'PYMODULE'),
  ('email.utils',
   '/nix/store/0n4y44dnaxafqs7cg625aldrb152x7bx-python3-3.10.10/lib/python3.10/email/utils.py',
   'PYMODULE'),
  ('fractions',
   '/nix/store/0n4y44dnaxafqs7cg625aldrb152x7bx-python3-3.10.10/lib/python3.10/fractions.py',
   'PYMODULE'),
  ('ftplib',
   '/nix/store/0n4y44dnaxafqs7cg625aldrb152x7bx-python3-3.10.10/lib/python3.10/ftplib.py',
   'PYMODULE'),
  ('getopt',
   '/nix/store/0n4y44dnaxafqs7cg625aldrb152x7bx-python3-3.10.10/lib/python3.10/getopt.py',
   'PYMODULE'),
  ('getpass',
   '/nix/store/0n4y44dnaxafqs7cg625aldrb152x7bx-python3-3.10.10/lib/python3.10/getpass.py',
   'PYMODULE'),
  ('gettext',
   '/nix/store/0n4y44dnaxafqs7cg625aldrb152x7bx-python3-3.10.10/lib/python3.10/gettext.py',
   'PYMODULE'),
  ('gzip',
   '/nix/store/0n4y44dnaxafqs7cg625aldrb152x7bx-python3-3.10.10/lib/python3.10/gzip.py',
   'PYMODULE'),
  ('hashlib',
   '/nix/store/0n4y44dnaxafqs7cg625aldrb152x7bx-python3-3.10.10/lib/python3.10/hashlib.py',
   'PYMODULE'),
  ('http',
   '/nix/store/0n4y44dnaxafqs7cg625aldrb152x7bx-python3-3.10.10/lib/python3.10/http/__init__.py',
   'PYMODULE'),
  ('http.client',
   '/nix/store/0n4y44dnaxafqs7cg625aldrb152x7bx-python3-3.10.10/lib/python3.10/http/client.py',
   'PYMODULE'),
  ('http.cookiejar',
   '/nix/store/0n4y44dnaxafqs7cg625aldrb152x7bx-python3-3.10.10/lib/python3.10/http/cookiejar.py',
   'PYMODULE'),
  ('importlib',
   '/nix/store/0n4y44dnaxafqs7cg625aldrb152x7bx-python3-3.10.10/lib/python3.10/importlib/__init__.py',
   'PYMODULE'),
  ('importlib._abc',
   '/nix/store/0n4y44dnaxafqs7cg625aldrb152x7bx-python3-3.10.10/lib/python3.10/importlib/_abc.py',
   'PYMODULE'),
  ('importlib._bootstrap',
   '/nix/store/0n4y44dnaxafqs7cg625aldrb152x7bx-python3-3.10.10/lib/python3.10/importlib/_bootstrap.py',
   'PYMODULE'),
  ('importlib._bootstrap_external',
   '/nix/store/0n4y44dnaxafqs7cg625aldrb152x7bx-python3-3.10.10/lib/python3.10/importlib/_bootstrap_external.py',
   'PYMODULE'),
  ('importlib.abc',
   '/nix/store/0n4y44dnaxafqs7cg625aldrb152x7bx-python3-3.10.10/lib/python3.10/importlib/abc.py',
   'PYMODULE'),
  ('importlib.machinery',
   '/nix/store/0n4y44dnaxafqs7cg625aldrb152x7bx-python3-3.10.10/lib/python3.10/importlib/machinery.py',
   'PYMODULE'),
  ('importlib.metadata',
   '/nix/store/0n4y44dnaxafqs7cg625aldrb152x7bx-python3-3.10.10/lib/python3.10/importlib/metadata/__init__.py',
   'PYMODULE'),
  ('importlib.metadata._adapters',
   '/nix/store/0n4y44dnaxafqs7cg625aldrb152x7bx-python3-3.10.10/lib/python3.10/importlib/metadata/_adapters.py',
   'PYMODULE'),
  ('importlib.metadata._collections',
   '/nix/store/0n4y44dnaxafqs7cg625aldrb152x7bx-python3-3.10.10/lib/python3.10/importlib/metadata/_collections.py',
   'PYMODULE'),
  ('importlib.metadata._functools',
   '/nix/store/0n4y44dnaxafqs7cg625aldrb152x7bx-python3-3.10.10/lib/python3.10/importlib/metadata/_functools.py',
   'PYMODULE'),
  ('importlib.metadata._itertools',
   '/nix/store/0n4y44dnaxafqs7cg625aldrb152x7bx-python3-3.10.10/lib/python3.10/importlib/metadata/_itertools.py',
   'PYMODULE'),
  ('importlib.metadata._meta',
   '/nix/store/0n4y44dnaxafqs7cg625aldrb152x7bx-python3-3.10.10/lib/python3.10/importlib/metadata/_meta.py',
   'PYMODULE'),
  ('importlib.metadata._text',
   '/nix/store/0n4y44dnaxafqs7cg625aldrb152x7bx-python3-3.10.10/lib/python3.10/importlib/metadata/_text.py',
   'PYMODULE'),
  ('importlib.readers',
   '/nix/store/0n4y44dnaxafqs7cg625aldrb152x7bx-python3-3.10.10/lib/python3.10/importlib/readers.py',
   'PYMODULE'),
  ('importlib.util',
   '/nix/store/0n4y44dnaxafqs7cg625aldrb152x7bx-python3-3.10.10/lib/python3.10/importlib/util.py',
   'PYMODULE'),
  ('inspect',
   '/nix/store/0n4y44dnaxafqs7cg625aldrb152x7bx-python3-3.10.10/lib/python3.10/inspect.py',
   'PYMODULE'),
  ('logging',
   '/nix/store/0n4y44dnaxafqs7cg625aldrb152x7bx-python3-3.10.10/lib/python3.10/logging/__init__.py',
   'PYMODULE'),
  ('lzma',
   '/nix/store/0n4y44dnaxafqs7cg625aldrb152x7bx-python3-3.10.10/lib/python3.10/lzma.py',
   'PYMODULE'),
  ('mimetypes',
   '/nix/store/0n4y44dnaxafqs7cg625aldrb152x7bx-python3-3.10.10/lib/python3.10/mimetypes.py',
   'PYMODULE'),
  ('netrc',
   '/nix/store/0n4y44dnaxafqs7cg625aldrb152x7bx-python3-3.10.10/lib/python3.10/netrc.py',
   'PYMODULE'),
  ('nturl2path',
   '/nix/store/0n4y44dnaxafqs7cg625aldrb152x7bx-python3-3.10.10/lib/python3.10/nturl2path.py',
   'PYMODULE'),
  ('numbers',
   '/nix/store/0n4y44dnaxafqs7cg625aldrb152x7bx-python3-3.10.10/lib/python3.10/numbers.py',
   'PYMODULE'),
  ('opcode',
   '/nix/store/0n4y44dnaxafqs7cg625aldrb152x7bx-python3-3.10.10/lib/python3.10/opcode.py',
   'PYMODULE'),
  ('optparse',
   '/nix/store/0n4y44dnaxafqs7cg625aldrb152x7bx-python3-3.10.10/lib/python3.10/optparse.py',
   'PYMODULE'),
  ('pickle',
   '/nix/store/0n4y44dnaxafqs7cg625aldrb152x7bx-python3-3.10.10/lib/python3.10/pickle.py',
   'PYMODULE'),
  ('pprint',
   '/nix/store/0n4y44dnaxafqs7cg625aldrb152x7bx-python3-3.10.10/lib/python3.10/pprint.py',
   'PYMODULE'),
  ('py_compile',
   '/nix/store/0n4y44dnaxafqs7cg625aldrb152x7bx-python3-3.10.10/lib/python3.10/py_compile.py',
   'PYMODULE'),
  ('quopri',
   '/nix/store/0n4y44dnaxafqs7cg625aldrb152x7bx-python3-3.10.10/lib/python3.10/quopri.py',
   'PYMODULE'),
  ('random',
   '/nix/store/0n4y44dnaxafqs7cg625aldrb152x7bx-python3-3.10.10/lib/python3.10/random.py',
   'PYMODULE'),
  ('selectors',
   '/nix/store/0n4y44dnaxafqs7cg625aldrb152x7bx-python3-3.10.10/lib/python3.10/selectors.py',
   'PYMODULE'),
  ('serial',
   '/home/al/.cache/pypoetry/virtualenvs/finometerdl-bnMV-q7v-py3.10/lib/python3.10/site-packages/serial/__init__.py',
   'PYMODULE'),
  ('serial.serialcli',
   '/home/al/.cache/pypoetry/virtualenvs/finometerdl-bnMV-q7v-py3.10/lib/python3.10/site-packages/serial/serialcli.py',
   'PYMODULE'),
  ('serial.serialjava',
   '/home/al/.cache/pypoetry/virtualenvs/finometerdl-bnMV-q7v-py3.10/lib/python3.10/site-packages/serial/serialjava.py',
   'PYMODULE'),
  ('serial.serialposix',
   '/home/al/.cache/pypoetry/virtualenvs/finometerdl-bnMV-q7v-py3.10/lib/python3.10/site-packages/serial/serialposix.py',
   'PYMODULE'),
  ('serial.serialutil',
   '/home/al/.cache/pypoetry/virtualenvs/finometerdl-bnMV-q7v-py3.10/lib/python3.10/site-packages/serial/serialutil.py',
   'PYMODULE'),
  ('serial.serialwin32',
   '/home/al/.cache/pypoetry/virtualenvs/finometerdl-bnMV-q7v-py3.10/lib/python3.10/site-packages/serial/serialwin32.py',
   'PYMODULE'),
  ('serial.win32',
   '/home/al/.cache/pypoetry/virtualenvs/finometerdl-bnMV-q7v-py3.10/lib/python3.10/site-packages/serial/win32.py',
   'PYMODULE'),
  ('serialdatalog',
   '/home/al/.cache/pypoetry/virtualenvs/finometerdl-bnMV-q7v-py3.10/lib/python3.10/site-packages/serialdatalog/__init__.py',
   'PYMODULE'),
  ('serialdatalog.datalog',
   '/home/al/.cache/pypoetry/virtualenvs/finometerdl-bnMV-q7v-py3.10/lib/python3.10/site-packages/serialdatalog/datalog.py',
   'PYMODULE'),
  ('shlex',
   '/nix/store/0n4y44dnaxafqs7cg625aldrb152x7bx-python3-3.10.10/lib/python3.10/shlex.py',
   'PYMODULE'),
  ('shutil',
   '/nix/store/0n4y44dnaxafqs7cg625aldrb152x7bx-python3-3.10.10/lib/python3.10/shutil.py',
   'PYMODULE'),
  ('signal',
   '/nix/store/0n4y44dnaxafqs7cg625aldrb152x7bx-python3-3.10.10/lib/python3.10/signal.py',
   'PYMODULE'),
  ('socket',
   '/nix/store/0n4y44dnaxafqs7cg625aldrb152x7bx-python3-3.10.10/lib/python3.10/socket.py',
   'PYMODULE'),
  ('sqlite3',
   '/nix/store/0n4y44dnaxafqs7cg625aldrb152x7bx-python3-3.10.10/lib/python3.10/sqlite3/__init__.py',
   'PYMODULE'),
  ('sqlite3.dbapi2',
   '/nix/store/0n4y44dnaxafqs7cg625aldrb152x7bx-python3-3.10.10/lib/python3.10/sqlite3/dbapi2.py',
   'PYMODULE'),
  ('sqlite3.dump',
   '/nix/store/0n4y44dnaxafqs7cg625aldrb152x7bx-python3-3.10.10/lib/python3.10/sqlite3/dump.py',
   'PYMODULE'),
  ('ssl',
   '/nix/store/0n4y44dnaxafqs7cg625aldrb152x7bx-python3-3.10.10/lib/python3.10/ssl.py',
   'PYMODULE'),
  ('statistics',
   '/nix/store/0n4y44dnaxafqs7cg625aldrb152x7bx-python3-3.10.10/lib/python3.10/statistics.py',
   'PYMODULE'),
  ('string',
   '/nix/store/0n4y44dnaxafqs7cg625aldrb152x7bx-python3-3.10.10/lib/python3.10/string.py',
   'PYMODULE'),
  ('stringprep',
   '/nix/store/0n4y44dnaxafqs7cg625aldrb152x7bx-python3-3.10.10/lib/python3.10/stringprep.py',
   'PYMODULE'),
  ('subprocess',
   '/nix/store/0n4y44dnaxafqs7cg625aldrb152x7bx-python3-3.10.10/lib/python3.10/subprocess.py',
   'PYMODULE'),
  ('tarfile',
   '/nix/store/0n4y44dnaxafqs7cg625aldrb152x7bx-python3-3.10.10/lib/python3.10/tarfile.py',
   'PYMODULE'),
  ('tempfile',
   '/nix/store/0n4y44dnaxafqs7cg625aldrb152x7bx-python3-3.10.10/lib/python3.10/tempfile.py',
   'PYMODULE'),
  ('textwrap',
   '/nix/store/0n4y44dnaxafqs7cg625aldrb152x7bx-python3-3.10.10/lib/python3.10/textwrap.py',
   'PYMODULE'),
  ('threading',
   '/nix/store/0n4y44dnaxafqs7cg625aldrb152x7bx-python3-3.10.10/lib/python3.10/threading.py',
   'PYMODULE'),
  ('tracemalloc',
   '/nix/store/0n4y44dnaxafqs7cg625aldrb152x7bx-python3-3.10.10/lib/python3.10/tracemalloc.py',
   'PYMODULE'),
  ('typing',
   '/nix/store/0n4y44dnaxafqs7cg625aldrb152x7bx-python3-3.10.10/lib/python3.10/typing.py',
   'PYMODULE'),
  ('uu',
   '/nix/store/0n4y44dnaxafqs7cg625aldrb152x7bx-python3-3.10.10/lib/python3.10/uu.py',
   'PYMODULE'),
  ('zipfile',
   '/nix/store/0n4y44dnaxafqs7cg625aldrb152x7bx-python3-3.10.10/lib/python3.10/zipfile.py',
   'PYMODULE')])
